{
  "mapping": [
    { "pattern": "/", "handler": "dynamicCtrl",
      "handlerConf": { "index": "00018", "pageName": "home", "options": "ftl-page" }},

    { "pattern": "demo.htm", "handler": "dynamicCtrl",
      "handlerConf": { "index": "00demo", "pageName": "other/demo", "options": "ftl-page" }},

    { "pattern": "documentation.htm", "handler": "dynamicCtrl",
      "handlerConf": { "index": "00documentation", "pageName": "other/documentation", "options": "ftl-page" }},

    { "pattern": "developer-corner.htm", "handler": "dynamicCtrl",
      "handlerConf": { "index": "00developer-corner", "pageName": "other/developer-corner", "options": "ftl-page" }},

    { "pattern": "plugins.htm", "handler": "dynamicCtrl",
      "handlerConf": { "index": "00plugins", "pageName": "other/plugins", "options": "ftl-page" }},

    { "pattern": "code-samples.htm", "handler": "dynamicCtrl",
      "handlerConf": { "index": "00code-samples", "pageName": "other/code-samples", "options": "ftl-page" }},

    { "pattern": "testing.htm", "handler": "dynamicCtrl",
      "handlerConf": { "index": "00testing", "pageName": "other/testing", "options": "ftl-page" }},

    { "pattern": "building-source.htm", "handler": "dynamicCtrl",
      "handlerConf": { "index": "00building-source", "pageName": "other/building-source", "options": "ftl-page" }},

    { "pattern": "run-embedded.htm", "handler": "dynamicCtrl",
      "handlerConf": { "index": "00run-embedded", "pageName": "other/run-embedded", "options": "ftl-page" }},

    { "pattern": "download.htm", "handler": "dynamicCtrl",
      "handlerConf": { "index": "00download", "pageName": "other/download", "options": "ftl-page" }},

    { "pattern": "contact.htm", "handler": "dynamicCtrl",
      "handlerConf": { "index": "00contact", "pageName": "other/contact", "options": "ftl-page" }},

    { "pattern": "license.htm", "handler": "dynamicCtrl",
      "handlerConf": { "index": "00license", "pageName": "other/license", "options": "ftl-page" }},

    { "pattern": "sample-1.htm", "handler": "dynamicCtrl",
      "handlerConf": { "index": "00sample-1", "pageName": "other/samples/sample-1", "options": "ftl-page" }},

    { "pattern": "sample-2.htm", "handler": "dynamicCtrl",
      "handlerConf": { "index": "00sample-2", "pageName": "other/samples/sample-2", "options": "ftl-page" }},

    { "pattern": "sample-3.htm", "handler": "dynamicCtrl",
      "handlerConf": { "index": "00sample-3", "pageName": "other/samples/sample-3", "options": "ftl-page" }},

    { "pattern": "sample-4.htm", "handler": "dynamicCtrl",
      "handlerConf": { "index": "00sample-4", "pageName": "other/samples/sample-4", "options": "ftl-page" }},

    { "pattern": "sample-5.htm", "handler": "dynamicCtrl",
      "handlerConf": { "index": "00sample-5", "pageName": "other/samples/sample-5", "options": "ftl-page" }},

    { "pattern": "samples/*.htm", "handler": "dynamicCtrl" }
  ]
}
