{
  "version": "1",
  "content": [
    { "baseDir": "settings-toy1", "site": "toy1", "action": "write",
      "items": [
        { "key": "UrlMapping", "file": "UrlMapping.json" }
      ]},

    { "baseDir": "settings-cp1", "site": "cp1", "action": "merge-urlmapping",
      "items": [
        { "key": "UrlMapping", "file": "UrlMapping.json" }
      ]},

    { "baseDir": "settings-sys", "site": "sys", "action": "write",
      "items": [
        { "key": "ToyshopRescaleProductPicturesTask", "value": "sleep=1" },
        { "key": "ToyshopRescaleProductPicturesFlag", "value": "0" },
        { "key": "ToyshopSolrSubmitProductsTask", "value": "sleep=1" },
        { "key": "ToyshopSolrSubmitProductsFlag", "value": "0" },

        { "key": "ToyshopParams", "file": "ToyshopParams.json" },
        { "key": "ToyshopPictureScale", "file": "ToyshopPictureScale.json" }
      ]},

    { "baseDir": "settings-sys", "site": "sys", "action": "merge-csv",
      "items": [
        { "key": "InstalledPacks", "value": "toyshop" }
      ]},

    { "baseDir": "settings-sys", "site": "sys", "action": "merge-csvmap",
      "items": [
        { "key": "Constants", "value": "toyshop.SOLR_TYPE_PRODUCT=101" }
      ]}
  ]
}
