{
  "mapping": [

    { "pattern": "/", "handler": "dynamicCtrl",
      "handlerConf": {
        "index": "00018",
        "pageName": "home",
        "options": "ftl-page",
        "facade": "ToyshopProductSearchF",
        "downtime": "0"
      }},

    { "pattern": "view/*", "handler": "dynamicCtrl",
      "handlerConf": {
        "index": "01view",
        "pageName": "other/view",
        "options": "ftl-page",
        "facade": "ToyshopProductF",
        "mod": "toyshopViewProductCtrlMod",
        "downtime": "0"
      }},

    { "pattern": "contact.htm", "handler": "dynamicCtrl",
      "handlerConf": {
        "index": "01contact",
        "pageName": "message/contact",
        "options": "ftl-page",
        "mod": "turingCtrlMod",
        "facade": "MessageF",
        "downtime": "0"
      }},

    { "pattern": "howtobuy.htm", "handler": "dynamicCtrl",
      "handlerConf": {
        "index": "01howtobuy",
        "pageName": "other/howtobuy",
        "options": "ftl-page",
        "downtime": "0"
      }}

  ]
}
