{
  "version": "1",
  "content": [
    { "baseDir": "ui-gfx-xx1", "baseFolder": "web", "site": "xx1", "action": "upload",
      "items": [

        { "subDir": "cms", "subFolder": "cms", "files": [
          "control-done.gif",
          "control-edit.gif",
          "control-exit.gif",
          "control-version.gif",
          "anchor-bullet.gif"
        ]}

      ]}
  ]
}
