[
  { "ext": "gif", "type": "image/gif" },
  { "ext": "jpeg", "type": "image/jpeg" },
  { "ext": "jpg", "type": "image/jpeg" },
  { "ext": "ico", "type": "image/x-icon" },
  { "ext": "png", "type": "image/png" },
  { "ext": "css", "type": "text/css" },
  { "ext": "htm", "type": "text/html; charset=UTF-8" },
  { "ext": "html", "type": "text/html; charset=UTF-8" },
  { "ext": "txt", "type": "text/plain; charset=UTF-8" },
  { "ext": "ftl", "type": "text/plain; charset=UTF-8" },
  { "ext": "js", "type": "text/javascript; charset=UTF-8" },
  { "ext": "pdf", "type": "application/pdf" },
  { "ext": "doc", "type": "application/msword" },
  { "ext": "xml", "type": "application/xml; charset=UTF-8" },
  { "ext": "xsl", "type": "application/xml; charset=UTF-8" },
  { "ext": "json", "type": "application/json; charset=UTF-8" }
]