{
  "mapping": [
    { "pattern": "dwr/engine.js", "handler": "dwrCtrl" },
    { "pattern": "dwr/util.js", "handler": "dwrCtrl" },
    { "pattern": "dwr/interface/**", "handler": "dwrCtrl" },
    { "pattern": "dwr/**", "handler": "dwrCtrl" },

    { "pattern": "sitemap.xml", "handler": "sitemapCtrl" },
    { "pattern": "sitemap.htm", "handler": "sitemapCtrl" },
    { "pattern": "**/favicon.ico", "handler": "faviconCtrl" },

    { "pattern": "**/404.htm", "handler": "notfoundCtrl" },
    { "pattern": "**/403.htm", "handler": "forbiddenCtrl" },
    { "pattern": "**/500.htm", "handler": "errorCtrl" },

    { "pattern": "/web/endorsed/**", "handler": "binaryCtrl" },

    { "pattern": "css.htm", "handler": "cssCtrl" },
    { "pattern": "**/*.css", "handler": "cssCtrl" },
    { "pattern": "js.htm", "handler": "jsCtrl" },
    { "pattern": "**/*.js", "handler": "jsCtrl" },
    { "pattern": "bin.htm", "handler": "binaryCtrl" },
    { "pattern": "**/*.gif", "handler": "binaryCtrl" },
    { "pattern": "**/*.jpg", "handler": "binaryCtrl" },
    { "pattern": "**/*.png", "handler": "binaryCtrl" },

    { "pattern": "sso.htm", "handler": "ssoCtrl" },
    { "pattern": "upload.htm", "handler": "uploadCtrl" },
    { "pattern": "downtime.htm", "handler": "downtimeCtrl" },
    { "pattern": "lab.htm", "handler": "labelsCtrl" },

    { "pattern": "files/**", "handler": "binaryCtrl" },
    { "pattern": "*.htm", "handler": "dynamicCtrl" },

    { "pattern": "api/system-status", "handler": "apiSystemStatus" },

    { "pattern": "/", "handler": "homeCtrl" },
    { "pattern": "blank.htm", "handler":  "blankCtrl" },
    { "pattern": "**/*", "handler":  "notfoundCtrl" }
  ],
  "unorderPrefix": "dwr"
}