{
  "version": "1",
  "content": [
    { "baseDir": "ui-toy1", "baseFolder": "web", "site": "toy1", "action": "upload",
      "items": [

        { "files": [
          "main.css",
          "theme.css",
          "macros.ftl"
        ]},

        { "subFolder": "haala", "files": [
          "code.js"
        ]},

        { "subFolder": "pages", "files": [
          "home.css",
          "home.js",
          "home.ftl",
          "layout-top.ftl",
          "layout-bottom.ftl"
        ]},

        { "subFolder": "pages/other", "files": [
          "view.css",
          "view.js",
          "view.ftl" ,
          "howtobuy.ftl"
        ]},

        { "subFolder": "pages/message", "files": [
          "contact.css",
          "contact.js",
          "contact.ftl"
        ]}

      ]},

    { "baseDir": "ui-cp1", "baseFolder": "web", "site": "cp1", "action": "upload",
      "items": [

        { "files": [
          "pack-toyshop.ftl",
          "toyshop-macros.ftl"
        ]},

        { "subDir": "toyshop-cp", "subFolder": "pages/cp/toyshop", "files": [
          "main.css",
          "main.js",
          "main.ftl",
          "details.css",
          "details.js",
          "details.ftl",
          "gallery.css",
          "gallery.js",
          "gallery.ftl",
          "edit.css",
          "edit.js",
          "edit.ftl",
          "props.css",
          "props.js",
          "props.ftl",
          "price.js",
          "price.ftl",
          "warehouse.js",
          "warehouse.ftl"
        ]}

      ]}
  ]
}
