{
  "version": "1",
  "content": [
    { "baseDir": "settings-sys", "site": "sys", "action": "write",
      "items": [
        { "key": "MimeTypes", "file": "MimeTypes.json" },
        { "key": "UrlMapping", "file": "UrlMapping.json" }
      ]}
  ]
}
