
{
  "version": "1",
  "content": [
    { "baseDir": "font-awesome-4.7.0-xx1", "baseFolder": "web/endorsed/font-awesome-4.7.0", "site": "xx1", "action": "upload",
      "items": [

        { "subDir": "css", "subFolder": "css", "files": [
          "font-awesome.css",
          "font-awesome.min.css"] },

        { "subDir": "fonts", "subFolder": "fonts", "files": [
          "fontawesome-webfont.eot",
          "fontawesome-webfont.svg",
          "fontawesome-webfont.ttf",
          "fontawesome-webfont.woff",
          "fontawesome-webfont.woff2",
          "FontAwesome.otf"] }

      ]}

  ]
}
