
{
  "version": "1",
  "content": [
    { "baseDir": "simple-lightbox-1.15.1-xx1", "baseFolder": "web/endorsed/simple-lightbox-1.15.1", "site": "xx1", "action": "upload",
      "items": [
        { "files": [
          "simplelightbox.min.css",
          "simple-lightbox.min.js"
        ]}

      ]}
  ]
}
