{
  "version": "1",
  "content": [
    { "baseDir": "tinymce-4.9.1-xx1", "baseFolder": "web/endorsed/tinymce-4.9.1", "site": "xx1", "action": "upload",
      "items": [

        { "files": [
          "jquery.tinymce.min.js",
          "license.txt",
          "tinymce.min.js"] },

        { "subDir": "langs", "subFolder": "langs", "files": [
          "en.js",
          "readme.md",
          "ru.js"] },

        { "subDir": "plugins/advlist", "subFolder": "plugins/advlist", "files": [
          "plugin.min.js"] },

        { "subDir": "plugins/anchor", "subFolder": "plugins/anchor", "files": [
          "plugin.min.js"] },

        { "subDir": "plugins/autolink", "subFolder": "plugins/autolink", "files": [
          "plugin.min.js"] },

        { "subDir": "plugins/autoresize", "subFolder": "plugins/autoresize", "files": [
          "plugin.min.js"] },

        { "subDir": "plugins/autosave", "subFolder": "plugins/autosave", "files": [
          "plugin.min.js"] },

        { "subDir": "plugins/bbcode", "subFolder": "plugins/bbcode", "files": [
          "plugin.min.js"] },

        { "subDir": "plugins/charmap", "subFolder": "plugins/charmap", "files": [
          "plugin.min.js"] },

        { "subDir": "plugins/code", "subFolder": "plugins/code", "files": [
          "plugin.min.js"] },

        { "subDir": "plugins/codesample", "subFolder": "plugins/codesample", "files": [
          "plugin.min.js"] },

        { "subDir": "plugins/codesample/css", "subFolder": "plugins/codesample/css", "files": [
          "prism.css"] },

        { "subDir": "plugins/colorpicker", "subFolder": "plugins/colorpicker", "files": [
          "plugin.min.js"] },

        { "subDir": "plugins/contextmenu", "subFolder": "plugins/contextmenu", "files": [
          "plugin.min.js"] },

        { "subDir": "plugins/directionality", "subFolder": "plugins/directionality", "files": [
          "plugin.min.js"] },

        { "subDir": "plugins/emoticons", "subFolder": "plugins/emoticons", "files": [
          "plugin.min.js"] },

        { "subDir": "plugins/emoticons/img", "subFolder": "plugins/emoticons/img", "files": [
          "smiley-cool.gif",
          "smiley-cry.gif",
          "smiley-embarassed.gif",
          "smiley-foot-in-mouth.gif",
          "smiley-frown.gif",
          "smiley-innocent.gif",
          "smiley-kiss.gif",
          "smiley-laughing.gif",
          "smiley-money-mouth.gif",
          "smiley-sealed.gif",
          "smiley-smile.gif",
          "smiley-surprised.gif",
          "smiley-tongue-out.gif",
          "smiley-undecided.gif",
          "smiley-wink.gif",
          "smiley-yell.gif"] },

        { "subDir": "plugins/fullpage", "subFolder": "plugins/fullpage", "files": [
          "plugin.min.js"] },

        { "subDir": "plugins/fullscreen", "subFolder": "plugins/fullscreen", "files": [
          "plugin.min.js"] },

        { "subDir": "plugins/help", "subFolder": "plugins/help", "files": [
          "plugin.min.js"] },

        { "subDir": "plugins/help/img", "subFolder": "plugins/help/img", "files": [
          "logo.png"] },

        { "subDir": "plugins/hr", "subFolder": "plugins/hr", "files": [
          "plugin.min.js"] },

        { "subDir": "plugins/image", "subFolder": "plugins/image", "files": [
          "plugin.min.js"] },

        { "subDir": "plugins/imagetools", "subFolder": "plugins/imagetools", "files": [
          "plugin.min.js"] },

        { "subDir": "plugins/importcss", "subFolder": "plugins/importcss", "files": [
          "plugin.min.js"] },

        { "subDir": "plugins/insertdatetime", "subFolder": "plugins/insertdatetime", "files": [
          "plugin.min.js"] },

        { "subDir": "plugins/legacyoutput", "subFolder": "plugins/legacyoutput", "files": [
          "plugin.min.js"] },

        { "subDir": "plugins/link", "subFolder": "plugins/link", "files": [
          "plugin.min.js"] },

        { "subDir": "plugins/lists", "subFolder": "plugins/lists", "files": [
          "plugin.min.js"] },

        { "subDir": "plugins/media", "subFolder": "plugins/media", "files": [
          "plugin.min.js"] },

        { "subDir": "plugins/nonbreaking", "subFolder": "plugins/nonbreaking", "files": [
          "plugin.min.js"] },

        { "subDir": "plugins/noneditable", "subFolder": "plugins/noneditable", "files": [
          "plugin.min.js"] },

        { "subDir": "plugins/pagebreak", "subFolder": "plugins/pagebreak", "files": [
          "plugin.min.js"] },

        { "subDir": "plugins/paste", "subFolder": "plugins/paste", "files": [
          "plugin.min.js"] },

        { "subDir": "plugins/preview", "subFolder": "plugins/preview", "files": [
          "plugin.min.js"] },

        { "subDir": "plugins/print", "subFolder": "plugins/print", "files": [
          "plugin.min.js"] },

        { "subDir": "plugins/save", "subFolder": "plugins/save", "files": [
          "plugin.min.js"] },

        { "subDir": "plugins/searchreplace", "subFolder": "plugins/searchreplace", "files": [
          "plugin.min.js"] },

        { "subDir": "plugins/spellchecker", "subFolder": "plugins/spellchecker", "files": [
          "plugin.min.js"] },

        { "subDir": "plugins/tabfocus", "subFolder": "plugins/tabfocus", "files": [
          "plugin.min.js"] },

        { "subDir": "plugins/table", "subFolder": "plugins/table", "files": [
          "plugin.min.js"] },

        { "subDir": "plugins/template", "subFolder": "plugins/template", "files": [
          "plugin.min.js"] },

        { "subDir": "plugins/textcolor", "subFolder": "plugins/textcolor", "files": [
          "plugin.min.js"] },

        { "subDir": "plugins/textpattern", "subFolder": "plugins/textpattern", "files": [
          "plugin.min.js"] },

        { "subDir": "plugins/toc", "subFolder": "plugins/toc", "files": [
          "plugin.min.js"] },

        { "subDir": "plugins/visualblocks", "subFolder": "plugins/visualblocks", "files": [
          "plugin.min.js"] },

        { "subDir": "plugins/visualblocks/css", "subFolder": "plugins/visualblocks/css", "files": [
          "visualblocks.css"] },

        { "subDir": "plugins/visualchars", "subFolder": "plugins/visualchars", "files": [
          "plugin.min.js"] },

        { "subDir": "plugins/wordcount", "subFolder": "plugins/wordcount", "files": [
          "plugin.min.js"] },

        { "subDir": "skins/lightgray", "subFolder": "skins/lightgray", "files": [
          "content.inline.min.css",
          "content.min.css",
          "content.mobile.min.css",
          "skin.min.css",
          "skin.mobile.min.css"] },

        { "subDir": "skins/lightgray/fonts", "subFolder": "skins/lightgray/fonts", "files": [
          "tinymce-mobile.woff",
          "tinymce-small.eot",
          "tinymce-small.svg",
          "tinymce-small.ttf",
          "tinymce-small.woff",
          "tinymce.eot",
          "tinymce.svg",
          "tinymce.ttf",
          "tinymce.woff"] },

        { "subDir": "skins/lightgray/img", "subFolder": "skins/lightgray/img", "files": [
          "anchor.gif",
          "loader.gif",
          "object.gif",
          "trans.gif"] },

        { "subDir": "themes/inlite", "subFolder": "themes/inlite", "files": [
          "theme.min.js"] },

        { "subDir": "themes/mobile", "subFolder": "themes/mobile", "files": [
          "theme.min.js"] },

        { "subDir": "themes/modern", "subFolder": "themes/modern", "files": [
          "theme.min.js"] }

      ]}
  ]
}
