{
  "version": "1",
  "content": [
    { "baseDir": "tinymce-3.4.7-xx1", "baseFolder": "web/endorsed/tinymce-3.4.7", "site": "xx1", "action": "upload",
      "items": [

        { "files": [
            "jquery.tinymce.js",
            "license.txt",
            "tiny_mce.js",
            "tiny_mce_popup.js",
            "tiny_mce_src.js"] },

        { "subDir": "langs", "subFolder": "langs", "files": [
            "en.js",
            "ru.js"] },

        { "subDir": "plugins/advhr", "subFolder": "plugins/advhr", "files": [
            "editor_plugin.js",
            "editor_plugin_src.js",
            "rule.htm"] },

        { "subDir": "plugins/advhr/css", "subFolder": "plugins/advhr/css", "files": [
            "advhr.css"] },

        { "subDir": "plugins/advhr/js", "subFolder": "plugins/advhr/js", "files": [
            "rule.js"] },

        { "subDir": "plugins/advhr/langs", "subFolder": "plugins/advhr/langs", "files": [
            "en_dlg.js",
            "ru_dlg.js"] },

        { "subDir": "plugins/advimage", "subFolder": "plugins/advimage", "files": [
            "editor_plugin.js",
            "editor_plugin_src.js",
            "image.htm"] },

        { "subDir": "plugins/advimage/css", "subFolder": "plugins/advimage/css", "files": [
            "advimage.css"] },

        { "subDir": "plugins/advimage/img", "subFolder": "plugins/advimage/img", "files": [
            "sample.gif"] },

        { "subDir": "plugins/advimage/js", "subFolder": "plugins/advimage/js", "files": [
            "image.js"] },

        { "subDir": "plugins/advimage/langs", "subFolder": "plugins/advimage/langs", "files": [
            "en_dlg.js",
            "ru_dlg.js"] },

        { "subDir": "plugins/advlink", "subFolder": "plugins/advlink", "files": [
            "editor_plugin.js",
            "editor_plugin_src.js",
            "link.htm"] },

        { "subDir": "plugins/advlink/css", "subFolder": "plugins/advlink/css", "files": [
            "advlink.css"] },

        { "subDir": "plugins/advlink/js", "subFolder": "plugins/advlink/js", "files": [
            "advlink.js"] },

        { "subDir": "plugins/advlink/langs", "subFolder": "plugins/advlink/langs", "files": [
            "en_dlg.js",
            "ru_dlg.js"] },

        { "subDir": "plugins/advlist", "subFolder": "plugins/advlist", "files": [
            "editor_plugin.js",
            "editor_plugin_src.js"] },

        { "subDir": "plugins/autolink", "subFolder": "plugins/autolink", "files": [
            "editor_plugin.js",
            "editor_plugin_src.js"] },

        { "subDir": "plugins/autoresize", "subFolder": "plugins/autoresize", "files": [
            "editor_plugin.js",
            "editor_plugin_src.js"] },

        { "subDir": "plugins/autosave", "subFolder": "plugins/autosave", "files": [
            "editor_plugin.js",
            "editor_plugin_src.js"] },

        { "subDir": "plugins/autosave/langs", "subFolder": "plugins/autosave/langs", "files": [
            "en.js"] },

        { "subDir": "plugins/bbcode", "subFolder": "plugins/bbcode", "files": [
            "editor_plugin.js",
            "editor_plugin_src.js"] },

        { "subDir": "plugins/contextmenu", "subFolder": "plugins/contextmenu", "files": [
            "editor_plugin.js",
            "editor_plugin_src.js"] },

        { "subDir": "plugins/directionality", "subFolder": "plugins/directionality", "files": [
            "editor_plugin.js",
            "editor_plugin_src.js"] },

        { "subDir": "plugins/emotions", "subFolder": "plugins/emotions", "files": [
            "editor_plugin.js",
            "editor_plugin_src.js",
            "emotions.htm"] },

        { "subDir": "plugins/emotions/img", "subFolder": "plugins/emotions/img", "files": [
            "smiley-cool.gif",
            "smiley-cry.gif",
            "smiley-embarassed.gif",
            "smiley-foot-in-mouth.gif",
            "smiley-frown.gif",
            "smiley-innocent.gif",
            "smiley-kiss.gif",
            "smiley-laughing.gif",
            "smiley-money-mouth.gif",
            "smiley-sealed.gif",
            "smiley-smile.gif",
            "smiley-surprised.gif",
            "smiley-tongue-out.gif",
            "smiley-undecided.gif",
            "smiley-wink.gif",
            "smiley-yell.gif"] },

        { "subDir": "plugins/emotions/js", "subFolder": "plugins/emotions/js", "files": [
            "emotions.js"] },

        { "subDir": "plugins/emotions/langs", "subFolder": "plugins/emotions/langs", "files": [
            "en_dlg.js",
            "ru_dlg.js"] },

        { "subDir": "plugins/example", "subFolder": "plugins/example", "files": [
            "dialog.htm",
            "editor_plugin.js",
            "editor_plugin_src.js"] },

        { "subDir": "plugins/example/img", "subFolder": "plugins/example/img", "files": [
            "example.gif"] },

        { "subDir": "plugins/example/js", "subFolder": "plugins/example/js", "files": [
            "dialog.js"] },

        { "subDir": "plugins/example/langs", "subFolder": "plugins/example/langs", "files": [
            "en.js",
            "en_dlg.js"] },

        { "subDir": "plugins/example_dependency", "subFolder": "plugins/example_dependency", "files": [
            "editor_plugin.js",
            "editor_plugin_src.js"] },

        { "subDir": "plugins/fullpage", "subFolder": "plugins/fullpage", "files": [
            "editor_plugin.js",
            "editor_plugin_src.js",
            "fullpage.htm"] },

        { "subDir": "plugins/fullpage/css", "subFolder": "plugins/fullpage/css", "files": [
            "fullpage.css"] },

        { "subDir": "plugins/fullpage/js", "subFolder": "plugins/fullpage/js", "files": [
            "fullpage.js"] },

        { "subDir": "plugins/fullpage/langs", "subFolder": "plugins/fullpage/langs", "files": [
            "en_dlg.js",
            "ru_dlg.js"] },

        { "subDir": "plugins/fullscreen", "subFolder": "plugins/fullscreen", "files": [
            "editor_plugin.js",
            "editor_plugin_src.js",
            "fullscreen.htm"] },

        { "subDir": "plugins/iespell", "subFolder": "plugins/iespell", "files": [
            "editor_plugin.js",
            "editor_plugin_src.js"] },

        { "subDir": "plugins/inlinepopups", "subFolder": "plugins/inlinepopups", "files": [
            "editor_plugin.js",
            "editor_plugin_src.js",
            "template.htm"] },

        { "subDir": "plugins/inlinepopups/skins/clearlooks2", "subFolder": "plugins/inlinepopups/skins/clearlooks2", "files": [
            "window.css"] },

        { "subDir": "plugins/inlinepopups/skins/clearlooks2/img", "subFolder": "plugins/inlinepopups/skins/clearlooks2/img", "files": [
            "alert.gif",
            "button.gif",
            "buttons.gif",
            "confirm.gif",
            "corners.gif",
            "horizontal.gif",
            "vertical.gif"] },

        { "subDir": "plugins/insertdatetime", "subFolder": "plugins/insertdatetime", "files": [
            "editor_plugin.js",
            "editor_plugin_src.js"] },

        { "subDir": "plugins/layer", "subFolder": "plugins/layer", "files": [
            "editor_plugin.js",
            "editor_plugin_src.js"] },

        { "subDir": "plugins/legacyoutput", "subFolder": "plugins/legacyoutput", "files": [
            "editor_plugin.js",
            "editor_plugin_src.js"] },

        { "subDir": "plugins/lists", "subFolder": "plugins/lists", "files": [
            "editor_plugin.js",
            "editor_plugin_src.js"] },

        { "subDir": "plugins/media", "subFolder": "plugins/media", "files": [
            "editor_plugin.js",
            "editor_plugin_src.js",
            "media.htm",
            "moxieplayer.swf"] },

        { "subDir": "plugins/media/css", "subFolder": "plugins/media/css", "files": [
            "media.css"] },

        { "subDir": "plugins/media/js", "subFolder": "plugins/media/js", "files": [
            "embed.js",
            "media.js"] },

        { "subDir": "plugins/media/langs", "subFolder": "plugins/media/langs", "files": [
            "en_dlg.js",
            "ru_dlg.js"] },

        { "subDir": "plugins/nonbreaking", "subFolder": "plugins/nonbreaking", "files": [
            "editor_plugin.js",
            "editor_plugin_src.js"] },

        { "subDir": "plugins/noneditable", "subFolder": "plugins/noneditable", "files": [
            "editor_plugin.js",
            "editor_plugin_src.js"] },

        { "subDir": "plugins/pagebreak", "subFolder": "plugins/pagebreak", "files": [
            "editor_plugin.js",
            "editor_plugin_src.js"] },

        { "subDir": "plugins/paste", "subFolder": "plugins/paste", "files": [
            "editor_plugin.js",
            "editor_plugin_src.js",
            "pastetext.htm",
            "pasteword.htm"] },

        { "subDir": "plugins/paste/js", "subFolder": "plugins/paste/js", "files": [
            "pastetext.js",
            "pasteword.js"] },

        { "subDir": "plugins/paste/langs", "subFolder": "plugins/paste/langs", "files": [
            "en_dlg.js",
            "ru_dlg.js"] },

        { "subDir": "plugins/preview", "subFolder": "plugins/preview", "files": [
            "editor_plugin.js",
            "editor_plugin_src.js",
            "example.html",
            "preview.html"] },

        { "subDir": "plugins/preview/jscripts", "subFolder": "plugins/preview/jscripts", "files": [
            "embed.js"] },

        { "subDir": "plugins/print", "subFolder": "plugins/print", "files": [
            "editor_plugin.js",
            "editor_plugin_src.js"] },

        { "subDir": "plugins/save", "subFolder": "plugins/save", "files": [
            "editor_plugin.js",
            "editor_plugin_src.js"] },

        { "subDir": "plugins/searchreplace", "subFolder": "plugins/searchreplace", "files": [
            "editor_plugin.js",
            "editor_plugin_src.js",
            "searchreplace.htm"] },

        { "subDir": "plugins/searchreplace/css", "subFolder": "plugins/searchreplace/css", "files": [
            "searchreplace.css"] },

        { "subDir": "plugins/searchreplace/js", "subFolder": "plugins/searchreplace/js", "files": [
            "searchreplace.js"] },

        { "subDir": "plugins/searchreplace/langs", "subFolder": "plugins/searchreplace/langs", "files": [
            "en_dlg.js",
            "ru_dlg.js"] },

        { "subDir": "plugins/spellchecker", "subFolder": "plugins/spellchecker", "files": [
            "editor_plugin.js",
            "editor_plugin_src.js"] },

        { "subDir": "plugins/spellchecker/css", "subFolder": "plugins/spellchecker/css", "files": [
            "content.css"] },

        { "subDir": "plugins/spellchecker/img", "subFolder": "plugins/spellchecker/img", "files": [
            "wline.gif"] },

        { "subDir": "plugins/style", "subFolder": "plugins/style", "files": [
            "editor_plugin.js",
            "editor_plugin_src.js",
            "props.htm"] },

        { "subDir": "plugins/style/css", "subFolder": "plugins/style/css", "files": [
            "props.css"] },

        { "subDir": "plugins/style/js", "subFolder": "plugins/style/js", "files": [
            "props.js"] },

        { "subDir": "plugins/style/langs", "subFolder": "plugins/style/langs", "files": [
            "en_dlg.js",
            "ru_dlg.js"] },

        { "subDir": "plugins/tabfocus", "subFolder": "plugins/tabfocus", "files": [
            "editor_plugin.js",
            "editor_plugin_src.js"] },

        { "subDir": "plugins/table", "subFolder": "plugins/table", "files": [
            "cell.htm",
            "editor_plugin.js",
            "editor_plugin_src.js",
            "merge_cells.htm",
            "row.htm",
            "table.htm"] },

        { "subDir": "plugins/table/css", "subFolder": "plugins/table/css", "files": [
            "cell.css",
            "row.css",
            "table.css"] },

        { "subDir": "plugins/table/js", "subFolder": "plugins/table/js", "files": [
            "cell.js",
            "merge_cells.js",
            "row.js",
            "table.js"] },

        { "subDir": "plugins/table/langs", "subFolder": "plugins/table/langs", "files": [
            "en_dlg.js",
            "ru_dlg.js"] },

        { "subDir": "plugins/template", "subFolder": "plugins/template", "files": [
            "blank.htm",
            "editor_plugin.js",
            "editor_plugin_src.js",
            "template.htm"] },

        { "subDir": "plugins/template/css", "subFolder": "plugins/template/css", "files": [
            "template.css"] },

        { "subDir": "plugins/template/js", "subFolder": "plugins/template/js", "files": [
            "template.js"] },

        { "subDir": "plugins/template/langs", "subFolder": "plugins/template/langs", "files": [
            "en_dlg.js",
            "ru_dlg.js"] },

        { "subDir": "plugins/visualchars", "subFolder": "plugins/visualchars", "files": [
            "editor_plugin.js",
            "editor_plugin_src.js"] },

        { "subDir": "plugins/wordcount", "subFolder": "plugins/wordcount", "files": [
            "editor_plugin.js",
            "editor_plugin_src.js"] },

        { "subDir": "plugins/xhtmlxtras", "subFolder": "plugins/xhtmlxtras", "files": [
            "abbr.htm",
            "acronym.htm",
            "attributes.htm",
            "cite.htm",
            "del.htm",
            "editor_plugin.js",
            "editor_plugin_src.js",
            "ins.htm"] },

        { "subDir": "plugins/xhtmlxtras/css", "subFolder": "plugins/xhtmlxtras/css", "files": [
            "attributes.css",
            "popup.css"] },

        { "subDir": "plugins/xhtmlxtras/js", "subFolder": "plugins/xhtmlxtras/js", "files": [
            "abbr.js",
            "acronym.js",
            "attributes.js",
            "cite.js",
            "del.js",
            "element_common.js",
            "ins.js"] },

        { "subDir": "plugins/xhtmlxtras/langs", "subFolder": "plugins/xhtmlxtras/langs", "files": [
            "en_dlg.js",
            "ru_dlg.js"] },

        { "subDir": "themes/advanced", "subFolder": "themes/advanced", "files": [
            "about.htm",
            "anchor.htm",
            "charmap.htm",
            "color_picker.htm",
            "editor_template.js",
            "editor_template_src.js",
            "image.htm",
            "link.htm",
            "shortcuts.htm",
            "source_editor.htm"] },

        { "subDir": "themes/advanced/img", "subFolder": "themes/advanced/img", "files": [
            "colorpicker.jpg",
            "flash.gif",
            "icons.gif",
            "iframe.gif",
            "pagebreak.gif",
            "quicktime.gif",
            "realmedia.gif",
            "shockwave.gif",
            "trans.gif",
            "video.gif",
            "windowsmedia.gif"] },

        { "subDir": "themes/advanced/js", "subFolder": "themes/advanced/js", "files": [
            "about.js",
            "anchor.js",
            "charmap.js",
            "color_picker.js",
            "image.js",
            "link.js",
            "source_editor.js"] },

        { "subDir": "themes/advanced/langs", "subFolder": "themes/advanced/langs", "files": [
            "en.js",
            "en_dlg.js",
            "ru.js",
            "ru_dlg.js"] },

        { "subDir": "themes/advanced/skins/default", "subFolder": "themes/advanced/skins/default", "files": [
            "content.css",
            "dialog.css",
            "ui.css"] },

        { "subDir": "themes/advanced/skins/default/img", "subFolder": "themes/advanced/skins/default/img", "files": [
            "buttons.png",
            "items.gif",
            "menu_arrow.gif",
            "menu_check.gif",
            "progress.gif",
            "tabs.gif"] },

        { "subDir": "themes/advanced/skins/highcontrast", "subFolder": "themes/advanced/skins/highcontrast", "files": [
            "content.css",
            "dialog.css",
            "ui.css"] },

        { "subDir": "themes/advanced/skins/o2k7", "subFolder": "themes/advanced/skins/o2k7", "files": [
            "content.css",
            "dialog.css",
            "ui.css",
            "ui_black.css",
            "ui_silver.css"] },

        { "subDir": "themes/advanced/skins/o2k7/img", "subFolder": "themes/advanced/skins/o2k7/img", "files": [
            "button_bg.png",
            "button_bg_black.png",
            "button_bg_silver.png"] },

        { "subDir": "themes/simple", "subFolder": "themes/simple", "files": [
            "editor_template.js",
            "editor_template_src.js"] },

        { "subDir": "themes/simple/img", "subFolder": "themes/simple/img", "files": [
            "icons.gif"] },

        { "subDir": "themes/simple/langs", "subFolder": "themes/simple/langs", "files": [
            "en.js",
            "ru.js"] },

        { "subDir": "themes/simple/skins/default", "subFolder": "themes/simple/skins/default", "files": [
            "content.css",
            "ui.css"] },

        { "subDir": "themes/simple/skins/o2k7", "subFolder": "themes/simple/skins/o2k7", "files": [
            "content.css",
            "ui.css"] },

        { "subDir": "themes/simple/skins/o2k7/img", "subFolder": "themes/simple/skins/o2k7/img", "files": [
            "button_bg.png"] },

        { "subDir": "utils", "subFolder": "utils", "files": [
            "editable_selects.js",
            "form_utils.js",
            "mctabs.js",
            "validate.js"] }

      ]}
  ]
}
