{
  "version": "1",
  "content": [
    { "baseDir": "settings-cp1", "site": "cp1", "action": "merge-urlmapping",
      "items": [
        { "key": "UrlMapping", "file": "UrlMapping.json" }
      ]},

    { "baseDir": "settings-sys", "site": "sys", "action": "write",
      "items": [
        { "key": "BannerSolrSubmitBannersTask", "value": "sleep=1" },
        { "key": "BannerSolrSubmitBannersFlag", "value": "0" },

        { "key": "BannerParams", "file": "BannerParams.json" }
      ]},

    { "baseDir": "settings-sys", "site": "sys", "action": "merge-csv",
      "items": [
        { "key": "InstalledPacks", "value": "banner" }
      ]},

    { "baseDir": "settings-sys", "site": "sys", "action": "merge-csvmap",
      "items": [
        { "key": "Constants", "value": "banner.SOLR_TYPE_BANNER=103" }
      ]}
  ]
}
