{
  "version": "1",
  "content": [
    { "baseDir": "ui-cp1", "baseFolder": "web", "site": "cp1", "action": "upload",
      "items": [

        { "files": [
          "pack-banner.ftl",
          "banner-macros.ftl"
        ]},

        { "subDir": "banner-cp", "subFolder": "pages/cp/banner", "files": [
          "add.css",
          "add.js",
          "add.ftl",
          "main.css",
          "main.js",
          "main.ftl",
          "edit.css",
          "edit.js",
          "edit.ftl"
        ]}

      ]}
  ]
}
