{
  "version": "1",
  "content": [
    { "baseDir": "ui-gfx-cp1", "baseFolder": "web/banner", "site": "cp1", "action": "upload",
      "items": [
        { "files": [
          "account-nav.png",
          "smallnav-addbanner.png",
          "smallnav-deletebanner.png"
        ]}
      ]}
  ]
}
