{
  "version": "1",
  "content": [
    { "baseDir": "dwr-xx1", "baseFolder": "dwr/interface", "site": "xx1", "action": "upload",
      "items": [

        { "files": [
            "WikiArticleF.js",
            "WikiArticleSearchF.js"
        ]}

      ]}
  ]
}
