{
  "version": "1",
  "content": [
    { "baseDir": "wiki-settings-me1", "site": "me1", "action": "merge-urlmapping",
      "items": [
        { "key": "UrlMapping", "file": "UrlMapping.json" }
      ]}
  ]
}
