{
  "version": "1",
  "content": [
    { "baseDir": "ui-gfx-cp1", "baseFolder": "web", "site": "cp1", "action": "upload",
      "items": [
        { "files": [
            "header-logo.gif",
            "ajax-bg.gif",
            "ajax-img.gif",
            "logo-firefox.png",
            "splash.jpg",

            "icon-add.gif",
            "icon-remove.gif",
            "icon-filter.gif",
            "icon-up.gif",
            "icon-down.gif",
            "icon-find.gif",
            "icon-flag-uk.gif",
            "icon-flag-ru.gif",
            "icon-facebook.png",

            "account-nav-cms.gif",
            "account-nav-details.gif",
            "account-nav-labels.gif",
            "account-nav-files.gif",
            "account-nav-messages.gif",
            "account-nav-password.gif",
            "account-nav-settings.gif",
            "account-nav-sysmessages.gif",
            "account-nav-users.gif",
            "account-nav-spam.gif",
            "account-nav-payments.png",
            "account-nav-nodes.png"
        ]},

        { "subDir": "message-cp", "subFolder": "message-cp", "files": [
          "messages-icon-unread.gif",
          "messages-smallnav-fwd.gif",
          "messages-smallnav-nofwd.gif",
          "messages-smallnav-delete.gif",
          "view-smallnav-abyss.gif",
          "view-smallnav-email.gif"
        ]},

        { "subDir": "setting-cp", "subFolder": "setting-cp", "files": [
          "settings-smallnav-add.gif"
        ]},

        { "subDir": "label-cp", "subFolder": "label-cp", "files": [
          "labels-smallnav-add.gif"
        ]},

        { "subDir": "file-cp", "subFolder": "file-cp", "files": [
          "files-smallnav-add.gif"
        ]},

        { "subDir": "user-cp", "subFolder": "user-cp", "files": [
          "view-smallnav-credit.gif",
          "view-smallnav-shell.gif",
          "view-smallnav-props.png",
          "view-smallnav-payment.png"
        ]},

        { "subDir": "cms-cp", "subFolder": "cms-cp", "files": [
          "web-smallnav-editsite.gif",
          "web-smallnav-structure.gif",
          "web-smallnav-editor.gif",
          "structure-smallnav-addpage.gif",
          "structure-smallnav-addfile.gif",
          "structure-smallnav-addlabel.gif",
          "structure-smallnav-addsetting.gif"
        ]},

        { "subDir": "cms-cp/editor", "subFolder": "cms-cp/editor", "files": [
          "main-smallnav-addpage.png",
          "editpage-smallnav-addpicture.png",
          "editpage-smallnav-system.png",
          "editpage-smallnav-page.png",
          "editpage-smallnav-view.png",
          "editpage-smallnav-delete.png",
          "editpage-smallnav-save.png",
          "editpage-icon-save.png",
          "editpage-icon-rich.png",
          "editpage-icon-fix.png",
          "editpage-icon-backup.png"
        ]},

        { "subDir": "spam-cp", "subFolder": "spam-cp", "files": [
          "editstorage-smallnav-delete.gif",
          "main-smallnav-addstorage.gif",
          "main-smallnav-starttask.gif",
          "main-smallnav-stoptask.gif"
        ]},

        { "subDir": "payment-cp", "subFolder": "payment-cp", "files": [
          "entry-smallnav-add.png",
          "entry-smallnav-push.png"
        ]},

        { "subDir": "node-cp", "subFolder": "node-cp", "files": [
          "nodes-smallnav-email.gif"
        ]}

      ]}
  ]
}
