{
  "version": "1",
  "content": [
    { "baseDir": "ui-cp1", "baseFolder": "web", "site": "cp1", "action": "upload",
      "items": [

        { "files": [
          "pack-wiki.ftl",
          "wiki-macros.ftl"
        ]},

        { "subDir": "wiki-cp", "subFolder": "pages/cp/wiki", "files": [
          "main.css",
          "main.js",
          "main.ftl",
          "edit.css",
          "edit.js",
          "edit.ftl",
          "view.css",
          "view.js",
          "view.ftl",
          "wiki.css",
          "wiki.js",
          "attachments.css",
          "attachments.js",
          "attachments.ftl",
          "search.css",
          "search.js",
          "search.ftl"
        ]}

      ]}
  ]
}
